// Jest Snapshot v1, https://goo.gl/fbAQLP

exports[`A maximally detailed report in the Ant JUnit format should be correctly serialised 1`] = `
"<testsuites><testsuite package=\\"Some suite\\" id=\\"0\\" name=\\"Some suite\\" timestamp=\\"1989-11-03T00:00:00\\" hostname=\\"some-hostname\\" tests=\\"11\\" errors=\\"2\\" failures=\\"2\\" time=\\"1.1337\\"><properties></properties><testcase name=\\"Successful test\\" classname=\\"successful-test-class\\" time=\\"0.72\\"></testcase><testcase name=\\"Skipped test\\" classname=\\"Skipped test\\" time=\\"0\\"></testcase><testcase name=\\"Unskipped test\\" classname=\\"Unskipped test\\" time=\\"0\\"></testcase><testcase name=\\"Failing test\\" classname=\\"Failing test\\" time=\\"0\\"><failure message=\\"First failure, Second failure\\" type=\\"Unkown\\"/></testcase><testcase name=\\"Another failing test\\" classname=\\"Another failing test\\" time=\\"0\\"><failure message=\\"Just one failure\\" type=\\"Unkown\\"/></testcase><testcase name=\\"Erroring test\\" classname=\\"Erroring test\\" time=\\"0\\"><error message=\\"First error, Second error\\" type=\\"Unkown\\"/></testcase><testcase name=\\"Another erroring test\\" classname=\\"Another erroring test\\" time=\\"0\\"><error message=\\"Just one error\\" type=\\"Unkown\\"/></testcase><testcase name=\\"Test with output\\" classname=\\"Test with output\\" time=\\"0\\"></testcase><testcase name=\\"Test with single output\\" classname=\\"Test with single output\\" time=\\"0\\"></testcase><testcase name=\\"Test with error output\\" classname=\\"Test with error output\\" time=\\"0\\"></testcase><testcase name=\\"Test with single error output\\" classname=\\"Test with single error output\\" time=\\"0\\"></testcase><system-out>First output
Second output
Only output</system-out><system-err>First error output
Second error output
Only error output</system-err></testsuite><testsuite package=\\"Another suite\\" id=\\"1\\" name=\\"Another suite\\" timestamp=\\"1970-01-01T00:00:00\\" hostname=\\"localhost\\" tests=\\"1\\" errors=\\"0\\" failures=\\"0\\" time=\\"0\\"><properties></properties><testcase name=\\"Some successful test\\" classname=\\"Some successful test\\" time=\\"0\\"></testcase><system-out></system-out><system-err></system-err></testsuite></testsuites>"
`;

exports[`A maximally detailed report should be correctly serialised 1`] = `"<testsuites tests=\\"12\\" errors=\\"2\\" failures=\\"2\\" skipped=\\"1\\" name=\\"Some test suite report name\\" time=\\"4.2\\"><testsuite tests=\\"11\\" errors=\\"2\\" failures=\\"2\\" skipped=\\"1\\" name=\\"Some suite\\" hostname=\\"some-hostname\\" time=\\"1.1337\\" timestamp=\\"1989-11-03T00:00:00.000Z\\"><testcase name=\\"Successful test\\" classname=\\"successful-test-class\\" time=\\"0.72\\" assertions=\\"2\\"></testcase><testcase name=\\"Skipped test\\" classname=\\"Skipped test\\" assertions=\\"2\\"><skipped></skipped></testcase><testcase name=\\"Unskipped test\\" classname=\\"Unskipped test\\"></testcase><testcase name=\\"Failing test\\" classname=\\"Failing test\\"><error type=\\"some-type\\">First failure</error><error>Second failure</error></testcase><testcase name=\\"Another failing test\\" classname=\\"Another failing test\\"><error>Just one failure</error></testcase><testcase name=\\"Erroring test\\" classname=\\"Erroring test\\"><error type=\\"some-type\\">First error</error><error>Second error</error></testcase><testcase name=\\"Another erroring test\\" classname=\\"Another erroring test\\"><error>Just one error</error></testcase><testcase name=\\"Test with output\\" classname=\\"Test with output\\"><system-out>First output</system-out><system-out>Second output</system-out></testcase><testcase name=\\"Test with single output\\" classname=\\"Test with single output\\"><system-out>Only output</system-out></testcase><testcase name=\\"Test with error output\\" classname=\\"Test with error output\\"><system-err>First error output</system-err><system-err>Second error output</system-err></testcase><testcase name=\\"Test with single error output\\" classname=\\"Test with single error output\\"><system-err>Only error output</system-err></testcase></testsuite><testsuite tests=\\"0\\" errors=\\"0\\" failures=\\"0\\" skipped=\\"0\\" name=\\"Suite without test cases\\"></testsuite><testsuite tests=\\"1\\" errors=\\"0\\" failures=\\"0\\" skipped=\\"0\\" name=\\"Another suite\\"><testcase name=\\"Some successful test\\" classname=\\"Some successful test\\"></testcase></testsuite></testsuites>"`;

exports[`A minimal report in the Ant JUnit format should be correctly serialised 1`] = `"<testsuites><testsuite package=\\"Test suite #0\\" id=\\"0\\" name=\\"Test suite #0\\" timestamp=\\"1970-01-01T00:00:00\\" hostname=\\"localhost\\" tests=\\"1\\" errors=\\"0\\" failures=\\"0\\" time=\\"0\\"><properties></properties><testcase name=\\"Successful test\\" classname=\\"Successful test\\" time=\\"0\\"></testcase><system-out></system-out><system-err></system-err></testsuite></testsuites>"`;

exports[`A minimal report should be correctly serialises 1`] = `"<testsuites tests=\\"1\\" errors=\\"0\\" failures=\\"0\\" skipped=\\"0\\"><testsuite tests=\\"1\\" errors=\\"0\\" failures=\\"0\\" skipped=\\"0\\"><testcase name=\\"Successful test\\" classname=\\"Successful test\\"></testcase></testsuite></testsuites>"`;

exports[`An empty report should be correctly serialised 1`] = `"<testsuites tests=\\"0\\" errors=\\"0\\" failures=\\"0\\" skipped=\\"0\\"></testsuites>"`;
